[
  {
    "id": 0,
    "title": "Main Street", 
    "desc": "You are standing on the main street.",
    "items": 
    [
      {
        "title": "note from D.E.V.",
        "text": "Welcome to my very first game! I hope you like it.\n-Michael"
      },
      {
        "title": "can of soda"
      }
    ]
  },
  {
    "id": 1,
    "title": "Thin Alley", 
    "desc": "You are standing in a thin alley."
  },
  {
    "id": 2,
    "title": "Red Lion Tavern",
    "desc": "You enter the Red Lion Tavern. It is known for its fine drinks and spacious rooms."
  },
  {
    "id": 3,
    "title": "River",
    "desc": "You approach a small river, hardly more than a brook. You see fish flowing with the water."
  }
]